{
    "No": [
        {
            "id": 486492694777036801,
            "People": {
                "Dulcane": "2018-09-04 12:09:57.814647",
                "Rynvar": "2018-09-04 12:15:11.610688"
            }
        }
    ],
    "Yes": [
        {
            "id": 486492694777036801,
            "People": {
                "Hochi": "2018-09-04 12:08:38.759689"
            }
        }
    ]
}
